{
    "schemes": [
        "https",
        "http"
    ],
    "swagger": "2.0",
    "info": {
        "description": "task",
        "title": "task",
        "contact": {}
    },
    "host": "task_manager-dev.kz",
    "basePath": "/task",
    "paths": {
        "/api/v1/task": {
            "get": {
                "consumes": [
                    "application/json"
                ],
                "produces": [
                    "application/json"
                ],
                "tags": [
                    "tasks"
                ],
                "summary": "Чтение задачи",
                "parameters": [
                    {
                        "type": "integer",
                        "description": "Task ID",
                        "name": "id",
                        "in": "query",
                        "required": true
                    }
                ],
                "responses": {
                    "200": {
                        "description": "OK",
                        "schema": {
                            "$ref": "#/definitions/schema.Response-model_Task"
                        }
                    },
                    "400": {
                        "description": "Bad Request",
                        "schema": {
                            "$ref": "#/definitions/schema.Response-schema_Empty"
                        }
                    }
                }
            },
            "put": {
                "consumes": [
                    "application/json"
                ],
                "produces": [
                    "application/json"
                ],
                "tags": [
                    "tasks"
                ],
                "summary": "Изменение задачи",
                "parameters": [
                    {
                        "description": "Task data",
                        "name": "data",
                        "in": "body",
                        "required": true,
                        "schema": {
                            "$ref": "#/definitions/model.Task"
                        }
                    }
                ],
                "responses": {
                    "200": {
                        "description": "OK",
                        "schema": {
                            "$ref": "#/definitions/schema.Response-schema_Empty"
                        }
                    },
                    "400": {
                        "description": "Bad Request",
                        "schema": {
                            "$ref": "#/definitions/schema.Response-schema_Empty"
                        }
                    }
                }
            },
            "post": {
                "consumes": [
                    "application/json"
                ],
                "produces": [
                    "application/json"
                ],
                "tags": [
                    "tasks"
                ],
                "summary": "Создание задачи",
                "parameters": [
                    {
                        "description": "Task data",
                        "name": "data",
                        "in": "body",
                        "required": true,
                        "schema": {
                            "$ref": "#/definitions/model.Task"
                        }
                    }
                ],
                "responses": {
                    "200": {
                        "description": "OK",
                        "schema": {
                            "$ref": "#/definitions/schema.Response-schema_Empty"
                        }
                    },
                    "400": {
                        "description": "Bad Request",
                        "schema": {
                            "$ref": "#/definitions/schema.Response-schema_Empty"
                        }
                    }
                }
            },
            "delete": {
                "consumes": [
                    "application/json"
                ],
                "produces": [
                    "application/json"
                ],
                "tags": [
                    "tasks"
                ],
                "summary": "Удаление задачи",
                "parameters": [
                    {
                        "type": "integer",
                        "description": "Task ID",
                        "name": "id",
                        "in": "query",
                        "required": true
                    }
                ],
                "responses": {
                    "200": {
                        "description": "OK",
                        "schema": {
                            "$ref": "#/definitions/schema.Response-schema_Empty"
                        }
                    },
                    "400": {
                        "description": "Bad Request",
                        "schema": {
                            "$ref": "#/definitions/schema.Response-schema_Empty"
                        }
                    }
                }
            }
        },
        "/api/v1/tasks": {
            "get": {
                "consumes": [
                    "application/json"
                ],
                "produces": [
                    "application/json"
                ],
                "tags": [
                    "tasks"
                ],
                "summary": "Получение всех задач",
                "responses": {
                    "200": {
                        "description": "OK",
                        "schema": {
                            "$ref": "#/definitions/schema.Response-array_model_Task"
                        }
                    },
                    "400": {
                        "description": "Bad Request",
                        "schema": {
                            "$ref": "#/definitions/schema.Response-schema_Empty"
                        }
                    }
                }
            }
        }
    },
    "definitions": {
        "model.Task": {
            "type": "object",
            "properties": {
                "created_at": {
                    "type": "string"
                },
                "creator": {
                    "type": "integer"
                },
                "description": {
                    "type": "string"
                },
                "executor": {
                    "type": "integer"
                },
                "id": {
                    "type": "integer"
                },
                "status": {
                    "type": "integer"
                },
                "title": {
                    "type": "string"
                },
                "updated_at": {
                    "type": "string"
                }
            }
        },
        "schema.Empty": {
            "type": "object"
        },
        "schema.Response-array_model_Task": {
            "type": "object",
            "properties": {
                "message": {
                    "type": "string"
                },
                "result": {
                    "type": "array",
                    "items": {
                        "$ref": "#/definitions/model.Task"
                    }
                },
                "status": {
                    "type": "boolean"
                }
            }
        },
        "schema.Response-model_Task": {
            "type": "object",
            "properties": {
                "message": {
                    "type": "string"
                },
                "result": {
                    "$ref": "#/definitions/model.Task"
                },
                "status": {
                    "type": "boolean"
                }
            }
        },
        "schema.Response-schema_Empty": {
            "type": "object",
            "properties": {
                "message": {
                    "type": "string"
                },
                "result": {
                    "$ref": "#/definitions/schema.Empty"
                },
                "status": {
                    "type": "boolean"
                }
            }
        }
    }
}